0
SECTION
2
HEADER
9
$INSUNITS
70
4
9
$ACADVER
1
AC1014
9
$HANDSEED
5
FFFF
0
ENDSEC
0
SECTION
2
TABLES
0
TABLE
2
VPORT
5
8
100
AcDbSymbolTable
0
ENDTAB
0
TABLE
2
LTYPE
5
5
100
AcDbSymbolTable
0
LTYPE
5
14
100
AcDbSymbolTableRecord
100
AcDbLinetypeTableRecord
2
BYBLOCK
70
0
0
LTYPE
5
15
100
AcDbSymbolTableRecord
100
AcDbLinetypeTableRecord
2
BYLAYER
70
0
0
ENDTAB
0
TABLE
2
LAYER
5
2
100
AcDbSymbolTable
70
2
0
LAYER
5
50
100
AcDbSymbolTableRecord
100
AcDbLayerTableRecord
2
0
70
0
6
CONTINUOUS
0
ENDTAB
0
TABLE
2
STYLE
5
3
100
AcDbSymbolTable
70
1
0
STYLE
5
11
100
AcDbSymbolTableRecord
100
AcDbTextStyleTableRecord
2
STANDARD
70
0
0
ENDTAB
0
TABLE
2
VIEW
5
6
100
AcDbSymbolTable
70
0
0
ENDTAB
0
TABLE
2
UCS
5
7
100
AcDbSymbolTable
70
0
0
ENDTAB
0
TABLE
2
APPID
5
9
100
AcDbSymbolTable
70
2
0
APPID
5
12
100
AcDbSymbolTableRecord
100
AcDbRegAppTableRecord
2
ACAD
70
0
0
ENDTAB
0
TABLE
2
DIMSTYLE
5
A
100
AcDbSymbolTable
70
1
0
ENDTAB
0
TABLE
2
BLOCK_RECORD
5
1
100
AcDbSymbolTable
70
1
0
BLOCK_RECORD
5
1F
100
AcDbSymbolTableRecord
100
AcDbBlockTableRecord
2
*MODEL_SPACE
0
BLOCK_RECORD
5
1B
100
AcDbSymbolTableRecord
100
AcDbBlockTableRecord
2
*PAPER_SPACE
0
ENDTAB
0
ENDSEC
0
SECTION
2
BLOCKS
0
BLOCK
5
20
100
AcDbEntity
100
AcDbBlockBegin
2
*MODEL_SPACE
0
ENDBLK
5
21
100
AcDbEntity
100
AcDbBlockEnd
0
BLOCK
5
1C
100
AcDbEntity
100
AcDbBlockBegin
2
*PAPER_SPACE
0
ENDBLK
5
1D
100
AcDbEntity
100
AcDbBlockEnd
0
ENDSEC
0
SECTION
2
ENTITIES
0
LWPOLYLINE
5
100
100
AcDbEntity
8
0
100
AcDbPolyline
90
4
70
1
43
0.0
10
54.760840158373007
20
-20
10
19.998895782731552
20
-20
10
19.998895782731552
20
-8.4000000000000004
10
54.760840158373007
20
-8.3999999999999986
0
LWPOLYLINE
5
101
100
AcDbEntity
8
0
100
AcDbPolyline
90
8
70
1
43
0.0
10
40.949637857927669
20
-9.7743248665788904
10
40.949637857927677
20
-10.484324866578893
42
-0.41421356237309553
10
39.699637857927662
20
-11.734324866578895
10
33.259637857927721
20
-11.734324866578842
42
-0.41421356237309609
10
32.009637857927736
20
-10.484324866578842
10
32.009637857927721
20
-9.7743248665788371
42
-0.41421356237309581
10
33.259637857927743
20
-8.5243248665788389
10
39.699637857927684
20
-8.5243248665788922
42
-0.41421356237309453
0
LWPOLYLINE
5
102
100
AcDbEntity
8
0
100
AcDbPolyline
90
8
70
1
43
0.0
10
33.259637857927714
20
-11.584324866578847
42
-0.41421356237309442
10
32.159637857927727
20
-10.48432486657884
10
32.15963785792772
20
-9.7743248665788389
42
-0.41421356237309559
10
33.259637857927736
20
-8.6743248665788393
10
39.699637857927684
20
-8.674324866578889
42
-0.41421356237309476
10
40.799637857927671
20
-9.7743248665788922
10
40.799637857927678
20
-10.484324866578893
42
-0.41421356237309559
10
39.699637857927662
20
-11.584324866578894
0
LWPOLYLINE
5
103
100
AcDbEntity
8
0
100
AcDbPolyline
90
8
70
1
43
0.0
10
41.099637857927661
20
-9.7743248665788922
10
41.099637857927682
20
-10.484324866578893
42
-0.41421356237309548
10
39.699637857927662
20
-11.884324866578895
10
33.259637857927721
20
-11.884324866578844
42
-0.41421356237309598
10
31.85963785792773
20
-10.484324866578842
10
31.859637857927723
20
-9.7743248665788354
42
-0.41421356237309548
10
33.259637857927743
20
-8.3743248665788386
10
39.699637857927691
20
-8.3743248665788954
42
-0.41421356237309415
0
ENDSEC
0
SECTION
2
OBJECTS
0
DICTIONARY
5
C
100
AcDbDictionary
3
ACAD_GROUP
350
D
3
ACAD_MLINESTYLE
350
17
0
DICTIONARY
5
D
100
AcDbDictionary
0
DICTIONARY
5
1A
330
C
100
AcDbDictionary
0
DICTIONARY
5
17
100
AcDbDictionary
0
ENDSEC
0
EOF
